Kingetal_AccountingforBiodiversity_Code
…
#aggregate the Fossitt Codes for each Land Use type 
total_areas_fossitt <- extent_data %>%
  group_by(Land_use, Fossitt) %>%
  summarise(total_area_m2 = sum(Area_m2))

`summarise()` has grouped output by 'Land_use'. You can override using the
`.groups` argument.

tibble(total_areas_fossitt)

# A tibble: 37 × 3
   Land_use    Fossitt total_area_m2
   <fct>       <fct>           <int>
 1 Agriculture BC1             55713
 2 Agriculture BL3              5685
 3 Agriculture ED2            130110
 4 Agriculture ED3             57975
 5 Agriculture FS1              9547
 6 Agriculture FW2             15079
 7 Agriculture FW4              3333
 8 Agriculture GA1           2531093
 9 Agriculture GS1             92432
10 Agriculture GS2             63585
# ℹ 27 more rows
…
scores <- condition_scores %>%
  group_by(AssetID) %>%
  summarise(condscore = sum(Weighted))

print(scores)

# A tibble: 593 × 2
   AssetID    condscore
   <fct>          <dbl>
 1 BAED302        0.333
 2 BAED303        0.417
 3 BAED304        0.5  
 4 BAED306        0.417
 5 BAED307        0.417
 6 BAED3HH102     0.583
 7 BAED3HH103     0.583
 8 BAED3HH104     0.472
 9 BAED3HH108     0.528
10 BAED3HH112     0.500
# ℹ 583 more rows
…
